<?xml version="1.0" encoding="UTF-8"?>
<svg width="16px" height="16px" viewBox="0 0 16 16" version="1.1" xmlns="http://www.w3.org/2000/svg" xmlns:xlink="http://www.w3.org/1999/xlink">
    <!-- Generator: Sketch 53.2 (72643) - https://sketchapp.com -->
    <title>ic_arrow</title>
    <desc>Created with Sketch.</desc>
    <g id="作业批改" stroke="none" stroke-width="1" fill="none" fill-rule="evenodd">
        <g id="编辑模式" transform="translate(-1240.000000, -70.000000)">
            <g id="分组-3-copy-9" transform="translate(1248.000000, 78.000000) scale(1, -1) translate(-1248.000000, -78.000000) translate(1240.000000, 70.000000)">
                <g id="分组">
                    <rect id="矩形" x="0" y="0" width="16" height="16"></rect>
                    <polygon id="路径" fill="#A21832" points="2.97732683 4 7.863961 8.88663419 12.7505952 4 13.727922 4.97732684 7.863961 10.8412879 2 4.97732684"></polygon>
                </g>
            </g>
        </g>
    </g>
</svg>