<?xml version="1.0" encoding="UTF-8"?>
<svg width="24px" height="24px" viewBox="0 0 24 24" version="1.1" xmlns="http://www.w3.org/2000/svg" xmlns:xlink="http://www.w3.org/1999/xlink">
    <!-- Generator: Sketch 53.2 (72643) - https://sketchapp.com -->
    <title>ic_confirm</title>
    <desc>Created with Sketch.</desc>
    <g id="编辑试题" stroke="none" stroke-width="1" fill="none" fill-rule="evenodd">
        <g id="试题编辑状态" transform="translate(-912.000000, -156.000000)">
            <g id="分组-2" transform="translate(208.000000, 140.000000)">
                <g id="分组-3-copy-3" transform="translate(704.000000, 16.000000)">
                    <g id="分组">
                        <rect id="矩形" x="0" y="0" width="24" height="24"></rect>
                        <circle id="椭圆形" stroke="#AB3047" stroke-width="2" cx="12" cy="12" r="10"></circle>
                        <polyline id="形状" stroke="#AB3047" stroke-width="2" transform="translate(12.299754, 10.592758) rotate(-315.000000) translate(-12.299754, -10.592758) " points="9.13469757 15.7479547 15.4648097 15.5706016 15.2488282 5.43756194"></polyline>
                    </g>
                </g>
            </g>
        </g>
    </g>
</svg>