<?xml version="1.0" encoding="UTF-8"?>
<svg width="16px" height="16px" viewBox="0 0 16 16" version="1.1" xmlns="http://www.w3.org/2000/svg" xmlns:xlink="http://www.w3.org/1999/xlink">
    <!-- Generator: Sketch 53.2 (72643) - https://sketchapp.com -->
    <title>ic_result</title>
    <desc>Created with Sketch.</desc>
    <g id="作业批改" stroke="none" stroke-width="1" fill="none" fill-rule="evenodd">
        <g id="学生端" transform="translate(-892.000000, -142.000000)">
            <g id="分组-3-copy-44" transform="translate(892.000000, 142.000000)">
                <g id="分组">
                    <rect id="矩形" x="0" y="0" width="16" height="16"></rect>
                    <polygon id="矩形" stroke="#A21832" stroke-width="1.33333333" points="3 2 9.09413744 2 13 5.73370533 13 14 3 14"></polygon>
                    <polyline id="路径-4" stroke="#A21832" stroke-width="1.33333333" points="13 5.73370533 9.25600571 5.73370533 9.25600571 2"></polyline>
                    <path d="M4.97453033,8.5 L11.2537131,8.5" id="路径-3" stroke="#A21832" stroke-width="1.33333333"></path>
                    <path d="M4.97453033,11.5 L11.2537131,11.5" id="路径-3-copy" stroke="#A21832" stroke-width="1.33333333"></path>
                </g>
            </g>
        </g>
    </g>
</svg>