<?xml version="1.0" encoding="UTF-8"?>
<svg width="16px" height="16px" viewBox="0 0 16 16" version="1.1" xmlns="http://www.w3.org/2000/svg" xmlns:xlink="http://www.w3.org/1999/xlink">
    <!-- Generator: Sketch 60.1 (88133) - https://sketch.com -->
    <title>ic_Correction</title>
    <desc>Created with Sketch.</desc>
    <g id="2.13增改" stroke="none" stroke-width="1" fill="none" fill-rule="evenodd">
        <g id="首页" transform="translate(-430.000000, -76.000000)">
            <g id="编组-3" transform="translate(416.000000, 64.000000)">
                <g id="分组-3-copy" transform="translate(14.000000, 12.000000)">
                    <g id="分组">
                        <polyline id="路径" stroke="#AB3047" points="12 10.8770373 12 14 3 14 3 2 12 2 12 4.74197458"></polyline>
                        <polyline id="路径-3" stroke="#AB3047" transform="translate(10.402824, 5.589332) rotate(-315.000000) translate(-10.402824, -5.589332) " points="8.24245579 9.65420978 12.5631925 9.39044771 12.5631925 1.52445446"></polyline>
                        <rect id="矩形" x="0" y="0" width="16" height="16"></rect>
                    </g>
                </g>
            </g>
        </g>
    </g>
</svg>